File,LOC,SLOC-P,SLOC-L,MVG,BLOC,C&SLOC,CLOC,CWORD,HCLOC,HCWORD
K:\Users\Douglasg14b\Documents\Game Development\The Space Game\Assets\Scripts\BuildQueueManager.cs,415,303,174,37,58,0,54,409,0,0
K:\Users\Douglasg14b\Documents\Game Development\The Space Game\Assets\Scripts\GameManager.cs,43,38,21,3,5,0,0,0,0,0
K:\Users\Douglasg14b\Documents\Game Development\The Space Game\Assets\Scripts\InstantiatedObjectsList.cs,581,475,245,87,48,0,58,380,0,0
K:\Users\Douglasg14b\Documents\Game Development\The Space Game\Assets\Scripts\ObjectMovementManager.cs,337,244,137,30,46,1,47,279,0,0
K:\Users\Douglasg14b\Documents\Game Development\The Space Game\Assets\Scripts\Player.cs,50,28,16,0,16,2,6,24,0,0
K:\Users\Douglasg14b\Documents\Game Development\The Space Game\Assets\Scripts\PlayerSelectionManager.cs,560,426,222,72,62,1,72,469,0,0
K:\Users\Douglasg14b\Documents\Game Development\The Space Game\Assets\Scripts\SelectedObjectUIManager.cs,348,220,122,18,48,2,80,484,0,0
K:\Users\Douglasg14b\Documents\Game Development\The Space Game\Assets\Scripts\Bolt\NetworkCallbacks.cs,77,74,57,6,3,0,0,0,0,0
K:\Users\Douglasg14b\Documents\Game Development\The Space Game\Assets\Scripts\Camera\CameraMovement_Keyboard.cs,186,140,89,13,22,0,24,96,0,0
K:\Users\Douglasg14b\Documents\Game Development\The Space Game\Assets\Scripts\Camera\CameraMovement_Mouse.cs,199,152,99,13,22,0,25,125,0,0
K:\Users\Douglasg14b\Documents\Game Development\The Space Game\Assets\Scripts\Camera\VCamera.cs,44,27,20,0,6,1,11,63,0,0
K:\Users\Douglasg14b\Documents\Game Development\The Space Game\Assets\Scripts\Custom Types\BuildQueueItemType.cs,31,22,18,0,4,1,5,32,0,0
K:\Users\Douglasg14b\Documents\Game Development\The Space Game\Assets\Scripts\Custom Types\BuildQueueType.cs,45,34,28,0,5,2,6,48,0,0
K:\Users\Douglasg14b\Documents\Game Development\The Space Game\Assets\Scripts\Custom Types\DetectedObjectType.cs,65,46,32,0,13,0,6,32,0,0
K:\Users\Douglasg14b\Documents\Game Development\The Space Game\Assets\Scripts\Custom Types\DetectedObjectTypeCollection.cs,19,17,10,1,2,0,0,0,0,0
K:\Users\Douglasg14b\Documents\Game Development\The Space Game\Assets\Scripts\Custom Types\InstantiatedObjectListCollection.cs,19,17,10,1,2,0,0,0,0,0
K:\Users\Douglasg14b\Documents\Game Development\The Space Game\Assets\Scripts\Custom Types\InstantiatedObjectsListType.cs,47,41,26,1,6,0,0,0,0,0
K:\Users\Douglasg14b\Documents\Game Development\The Space Game\Assets\Scripts\Custom Types\Data Encapsulation Types\GameObjectMovesListType.cs,32,21,17,0,6,0,5,20,0,0
K:\Users\Douglasg14b\Documents\Game Development\The Space Game\Assets\Scripts\Custom Types\Data Encapsulation Types\ResourceListType.cs,53,44,34,0,7,3,2,56,0,0
K:\Users\Douglasg14b\Documents\Game Development\The Space Game\Assets\Scripts\Custom Types\Data Encapsulation Types\ResourcesPanelInfoType.cs,40,33,25,0,7,0,0,0,0,0
K:\Users\Douglasg14b\Documents\Game Development\The Space Game\Assets\Scripts\Custom Types\Data Encapsulation Types\UIObjectInfoType.cs,50,40,30,0,10,0,0,0,0,0
K:\Users\Douglasg14b\Documents\Game Development\The Space Game\Assets\Scripts\Custom Types\Data Encapsulation Types\EventArg Types\LClickEventArgs.cs,36,22,16,0,7,0,7,32,0,0
K:\Users\Douglasg14b\Documents\Game Development\The Space Game\Assets\Scripts\Custom Types\Data Encapsulation Types\EventArg Types\MouseHoverEventArgs.cs,35,22,16,0,6,0,7,32,0,0
K:\Users\Douglasg14b\Documents\Game Development\The Space Game\Assets\Scripts\Custom Types\Data Encapsulation Types\EventArg Types\RClickEventArgs.cs,36,22,16,0,7,0,7,32,0,0
K:\Users\Douglasg14b\Documents\Game Development\The Space Game\Assets\Scripts\Custom Types\Enums\PlayerObjectType.cs,18,16,6,0,2,0,0,0,0,0
K:\Users\Douglasg14b\Documents\Game Development\The Space Game\Assets\Scripts\Exceptions\EmptyFieldException.cs,18,15,8,0,3,0,0,0,0,0
K:\Users\Douglasg14b\Documents\Game Development\The Space Game\Assets\Scripts\Exceptions\IncorrectTagException.cs,20,14,7,0,6,0,0,0,0,0
K:\Users\Douglasg14b\Documents\Game Development\The Space Game\Assets\Scripts\Exceptions\NotEnabledException.cs,20,14,7,0,6,0,0,0,0,0
K:\Users\Douglasg14b\Documents\Game Development\The Space Game\Assets\Scripts\Exceptions\ObjectNotFoundException.cs,19,14,7,0,5,0,0,0,0,0
K:\Users\Douglasg14b\Documents\Game Development\The Space Game\Assets\Scripts\Exceptions\ObjectNotInstantiatedException.cs,20,14,7,0,6,0,0,0,0,0
K:\Users\Douglasg14b\Documents\Game Development\The Space Game\Assets\Scripts\Exceptions\PlayerNotFoundException.cs,20,14,7,0,6,0,0,0,0,0
K:\Users\Douglasg14b\Documents\Game Development\The Space Game\Assets\Scripts\Interfaces\IBuildableObject.cs,13,11,9,0,2,0,0,0,0,0
K:\Users\Douglasg14b\Documents\Game Development\The Space Game\Assets\Scripts\Interfaces\ICanAttack.cs,20,18,16,0,2,0,0,0,0,0
K:\Users\Douglasg14b\Documents\Game Development\The Space Game\Assets\Scripts\Interfaces\ICanBuild.cs,18,15,13,0,3,0,0,0,0,0
K:\Users\Douglasg14b\Documents\Game Development\The Space Game\Assets\Scripts\Interfaces\ICanBuildSelf.cs,12,10,8,0,2,0,0,0,0,0
K:\Users\Douglasg14b\Documents\Game Development\The Space Game\Assets\Scripts\Interfaces\IMoveableObject.cs,17,14,12,0,3,0,0,0,0,0
K:\Users\Douglasg14b\Documents\Game Development\The Space Game\Assets\Scripts\Interfaces\IPlayerObject.cs,35,23,21,0,11,0,1,3,0,0
K:\Users\Douglasg14b\Documents\Game Development\The Space Game\Assets\Scripts\Interfaces\ITestInterface.cs,12,6,4,0,6,0,0,0,0,0
K:\Users\Douglasg14b\Documents\Game Development\The Space Game\Assets\Scripts\Misc Scripts\ExposePropertyAttribute.cs,4,3,2,0,1,0,0,0,0,0
K:\Users\Douglasg14b\Documents\Game Development\The Space Game\Assets\Scripts\Misc Scripts\FPSDisplay.cs,28,23,17,0,5,0,0,0,0,0
K:\Users\Douglasg14b\Documents\Game Development\The Space Game\Assets\Scripts\Misc Scripts\InstantiatedListAdder.cs,75,57,33,5,12,0,6,35,0,0
K:\Users\Douglasg14b\Documents\Game Development\The Space Game\Assets\Scripts\Misc Scripts\ReferanceTracker.cs,126,82,46,6,24,0,20,102,0,0
K:\Users\Douglasg14b\Documents\Game Development\The Space Game\Assets\Scripts\Resource\Ore.cs,6,4,3,0,1,0,1,12,0,0
K:\Users\Douglasg14b\Documents\Game Development\The Space Game\Assets\Scripts\Resource\OreDeposit.cs,33,15,12,1,4,0,14,63,0,0
K:\Users\Douglasg14b\Documents\Game Development\The Space Game\Assets\Scripts\Resource\Resource.cs,45,27,19,3,12,0,6,29,0,0
K:\Users\Douglasg14b\Documents\Game Development\The Space Game\Assets\Scripts\System\Enums.cs,15,6,5,0,2,0,7,25,7,25
K:\Users\Douglasg14b\Documents\Game Development\The Space Game\Assets\Scripts\System\GameManager.cs,137,1,0,0,0,1,136,268,0,1
K:\Users\Douglasg14b\Documents\Game Development\The Space Game\Assets\Scripts\System\Math.cs,137,83,53,13,20,2,34,190,0,0
K:\Users\Douglasg14b\Documents\Game Development\The Space Game\Assets\Scripts\System\ResourceManager.cs,75,58,52,10,8,1,9,21,0,1
K:\Users\Douglasg14b\Documents\Game Development\The Space Game\Assets\Scripts\System\Structs.cs,19,15,9,0,1,0,3,16,0,0
K:\Users\Douglasg14b\Documents\Game Development\The Space Game\Assets\Scripts\System\WorkManager.cs,86,53,44,8,11,1,22,154,0,1
K:\Users\Douglasg14b\Documents\Game Development\The Space Game\Assets\Scripts\System\GameObject Extensions\ReferanceTrackerExtension.cs,114,73,39,10,16,0,25,125,0,0
K:\Users\Douglasg14b\Documents\Game Development\The Space Game\Assets\Scripts\System\Objects Lists\BuildableObjectsList.cs,42,32,18,3,10,0,0,0,0,0
K:\Users\Douglasg14b\Documents\Game Development\The Space Game\Assets\Scripts\System\Objects Lists\BuildingBuildLists.cs,40,24,12,3,11,0,5,30,0,0
K:\Users\Douglasg14b\Documents\Game Development\The Space Game\Assets\Scripts\System\Objects Lists\GameObjectList.cs,126,94,54,20,18,0,14,54,0,0
K:\Users\Douglasg14b\Documents\Game Development\The Space Game\Assets\Scripts\System\Objects Lists\GetBuildableObjects.cs,26,22,14,1,4,0,0,0,0,0
K:\Users\Douglasg14b\Documents\Game Development\The Space Game\Assets\Scripts\System\Objects Lists\GetGameObjects.cs,66,54,30,9,12,0,0,0,0,0
K:\Users\Douglasg14b\Documents\Game Development\The Space Game\Assets\Scripts\System\Objects Lists\GetUIObjects.cs,50,36,18,3,13,0,1,6,0,0
K:\Users\Douglasg14b\Documents\Game Development\The Space Game\Assets\Scripts\System\Objects Lists\UIObjectsList.cs,66,48,26,9,13,1,5,33,0,0
K:\Users\Douglasg14b\Documents\Game Development\The Space Game\Assets\Scripts\System\Objects Lists\UnitBuildLists.cs,16,8,5,0,6,0,2,10,0,0
K:\Users\Douglasg14b\Documents\Game Development\The Space Game\Assets\Scripts\User Input\InputValidations.cs,70,41,24,10,15,0,14,58,0,0
K:\Users\Douglasg14b\Documents\Game Development\The Space Game\Assets\Scripts\User Input\KeyboardEvents.cs,251,210,104,36,26,0,15,49,0,0
K:\Users\Douglasg14b\Documents\Game Development\The Space Game\Assets\Scripts\User Input\MouseEvents.cs,401,325,177,31,38,1,38,235,0,0
K:\Users\Douglasg14b\Documents\Game Development\The Space Game\Assets\Scripts\User Input\ScreenRects.cs,46,33,20,0,11,0,2,10,0,0
K:\Users\Douglasg14b\Documents\Game Development\The Space Game\Assets\Scripts\User Input\UserInput.cs,63,40,27,1,12,0,11,55,0,0
K:\Users\Douglasg14b\Documents\Game Development\The Space Game\Assets\Scripts\User Interface\CustomMouse.cs,361,279,175,24,43,2,39,201,0,0
K:\Users\Douglasg14b\Documents\Game Development\The Space Game\Assets\Scripts\User Interface\GameVersion.cs,18,11,8,1,5,0,2,5,0,0
K:\Users\Douglasg14b\Documents\Game Development\The Space Game\Assets\Scripts\User Interface\HUD.cs,353,1,0,0,31,1,321,1414,0,2
K:\Users\Douglasg14b\Documents\Game Development\The Space Game\Assets\Scripts\User Interface\MainCanvas.cs,72,50,31,1,18,0,4,38,0,0
K:\Users\Douglasg14b\Documents\Game Development\The Space Game\Assets\Scripts\User Interface\MovementCircle.cs,119,1,0,0,22,1,96,245,0,2
K:\Users\Douglasg14b\Documents\Game Development\The Space Game\Assets\Scripts\User Interface\MovementPathLines.cs,218,172,124,4,34,8,12,85,0,0
K:\Users\Douglasg14b\Documents\Game Development\The Space Game\Assets\Scripts\User Interface\MovementPathsOLD.cs,180,1,0,0,26,1,153,472,0,2
K:\Users\Douglasg14b\Documents\Game Development\The Space Game\Assets\Scripts\User Interface\SelectionBox.cs,212,153,110,4,28,3,31,286,0,0
K:\Users\Douglasg14b\Documents\Game Development\The Space Game\Assets\Scripts\User Interface\StrategicCircles.cs,110,81,56,4,19,0,10,47,0,0
K:\Users\Douglasg14b\Documents\Game Development\The Space Game\Assets\Scripts\User Interface\UsernameDisplay.cs,67,59,29,10,8,0,0,0,0,0
K:\Users\Douglasg14b\Documents\Game Development\The Space Game\Assets\Scripts\User Interface\Floating Elements\FloatingBarCanvas.cs,127,98,65,8,24,0,5,36,0,0
K:\Users\Douglasg14b\Documents\Game Development\The Space Game\Assets\Scripts\User Interface\Floating Elements\FloatingHealthBar.cs,98,79,48,6,16,0,3,20,0,0
K:\Users\Douglasg14b\Documents\Game Development\The Space Game\Assets\Scripts\User Interface\Floating Elements\FloatingProgressBar.cs,105,86,50,7,16,0,3,19,0,0
K:\Users\Douglasg14b\Documents\Game Development\The Space Game\Assets\Scripts\User Interface\Floating Elements\ObjectUIElements.cs,80,58,35,4,17,0,5,28,0,0
K:\Users\Douglasg14b\Documents\Game Development\The Space Game\Assets\Scripts\User Interface\Floating Elements\UISelectionBox.cs,132,92,73,1,30,2,10,114,0,0
K:\Users\Douglasg14b\Documents\Game Development\The Space Game\Assets\Scripts\User Interface\HUD\GameSpeed.cs,49,39,22,1,10,0,0,0,0,0
K:\Users\Douglasg14b\Documents\Game Development\The Space Game\Assets\Scripts\User Interface\HUD\BuildBar\BlockUpgradeButton.cs,48,34,18,2,12,0,2,26,0,0
K:\Users\Douglasg14b\Documents\Game Development\The Space Game\Assets\Scripts\User Interface\HUD\BuildBar\BuildBar.cs,92,75,42,8,12,0,5,68,0,0
K:\Users\Douglasg14b\Documents\Game Development\The Space Game\Assets\Scripts\User Interface\HUD\BuildBar\BuildBlockButton.cs,48,34,19,2,12,0,2,26,0,0
K:\Users\Douglasg14b\Documents\Game Development\The Space Game\Assets\Scripts\User Interface\HUD\BuildBar\BuildButtons.cs,76,62,35,6,10,1,4,59,0,0
K:\Users\Douglasg14b\Documents\Game Development\The Space Game\Assets\Scripts\User Interface\HUD\BuildBar\BuildPanel.cs,132,112,74,12,17,0,3,11,0,0
K:\Users\Douglasg14b\Documents\Game Development\The Space Game\Assets\Scripts\User Interface\HUD\BuildBar\BuildQueueBar.cs,182,140,86,11,24,0,18,152,0,0
K:\Users\Douglasg14b\Documents\Game Development\The Space Game\Assets\Scripts\User Interface\HUD\BuildBar\CoreUpgradeButton.cs,47,33,18,2,12,0,2,26,0,0
K:\Users\Douglasg14b\Documents\Game Development\The Space Game\Assets\Scripts\User Interface\HUD\BuildBar\UIBuildQueueItem.cs,79,64,35,6,12,0,3,32,0,0
K:\Users\Douglasg14b\Documents\Game Development\The Space Game\Assets\Scripts\User Interface\HUD\ObjectHUDPanel\ObjectHealthBar.cs,99,69,42,2,17,0,13,66,0,0
K:\Users\Douglasg14b\Documents\Game Development\The Space Game\Assets\Scripts\User Interface\HUD\ObjectHUDPanel\ObjectHUDPanel.cs,229,159,95,13,42,0,28,176,0,0
K:\Users\Douglasg14b\Documents\Game Development\The Space Game\Assets\Scripts\User Interface\HUD\ResourcesBar\MetalResourcesPanel.cs,67,53,29,3,11,0,3,19,0,0
K:\Users\Douglasg14b\Documents\Game Development\The Space Game\Assets\Scripts\User Interface\HUD\ResourcesBar\PowerResourcesPanel.cs,66,54,30,3,9,0,3,19,0,0
K:\Users\Douglasg14b\Documents\Game Development\The Space Game\Assets\Scripts\User Interface\HUD\ResourcesBar\ResourceBar.cs,53,40,23,2,11,0,2,13,0,0
K:\Users\Douglasg14b\Documents\Game Development\The Space Game\Assets\Scripts\User Interface\Pause Menu\PauseMask.cs,8,5,3,0,3,0,0,0,0,0
K:\Users\Douglasg14b\Documents\Game Development\The Space Game\Assets\Scripts\User Interface\Pause Menu\PauseMenu.cs,63,46,31,0,17,0,0,0,0,0
K:\Users\Douglasg14b\Documents\Game Development\The Space Game\Assets\Scripts\User Interface\Pause Menu\QuitButton.cs,35,26,17,1,8,0,1,4,0,0
K:\Users\Douglasg14b\Documents\Game Development\The Space Game\Assets\Scripts\User Interface\Pause Menu\ResumeButton.cs,35,26,17,1,8,0,1,4,0,0
K:\Users\Douglasg14b\Documents\Game Development\The Space Game\Assets\Scripts\WorldObject\BlockHandler.cs,258,197,118,27,32,9,29,441,0,0
K:\Users\Douglasg14b\Documents\Game Development\The Space Game\Assets\Scripts\WorldObject\CoreHandler.cs,24,17,11,0,7,0,0,0,0,0
K:\Users\Douglasg14b\Documents\Game Development\The Space Game\Assets\Scripts\WorldObject\PlayerObject.cs,212,1,0,0,37,1,174,662,0,2
K:\Users\Douglasg14b\Documents\Game Development\The Space Game\Assets\Scripts\WorldObject\UnitHandler.cs,16,8,5,0,6,0,2,10,0,0
K:\Users\Douglasg14b\Documents\Game Development\The Space Game\Assets\Scripts\WorldObject\Attacking\RangeDetection.cs,240,177,100,20,33,6,30,202,0,0
K:\Users\Douglasg14b\Documents\Game Development\The Space Game\Assets\Scripts\WorldObject\Attacking\Weapons.cs,19,9,7,0,6,1,4,31,0,0
K:\Users\Douglasg14b\Documents\Game Development\The Space Game\Assets\Scripts\WorldObject\Attacking\Attack Collider Detection\AttackRangeDetect.cs,113,83,50,3,18,0,12,84,0,0
K:\Users\Douglasg14b\Documents\Game Development\The Space Game\Assets\Scripts\WorldObject\Attacking\Attack Collider Detection\PointDefenseRangeDetect.cs,115,84,50,4,18,0,13,78,0,0
K:\Users\Douglasg14b\Documents\Game Development\The Space Game\Assets\Scripts\WorldObject\Attacking\Attack Projectiles\Attack.cs,61,44,30,1,10,0,7,29,0,0
K:\Users\Douglasg14b\Documents\Game Development\The Space Game\Assets\Scripts\WorldObject\Attacking\Attack Projectiles\BlasterAttack.cs,94,70,44,2,17,1,7,44,0,0
K:\Users\Douglasg14b\Documents\Game Development\The Space Game\Assets\Scripts\WorldObject\Attacking\Attack Projectiles\BlasterPointDefense.cs,114,87,57,3,16,0,11,55,0,0
K:\Users\Douglasg14b\Documents\Game Development\The Space Game\Assets\Scripts\WorldObject\Attacking\Attack Projectiles\LargeShellAttack.cs,12,8,6,0,4,0,0,0,0,0
K:\Users\Douglasg14b\Documents\Game Development\The Space Game\Assets\Scripts\WorldObject\Attacking\Turrets\PointDefenseTurret.cs,134,112,70,8,16,1,6,56,0,0
K:\Users\Douglasg14b\Documents\Game Development\The Space Game\Assets\Scripts\WorldObject\Attacking\Turrets\ProjectileAttackTurret.cs,126,83,53,4,15,1,28,125,0,0
K:\Users\Douglasg14b\Documents\Game Development\The Space Game\Assets\Scripts\WorldObject\Attacking\Turrets\Turret.cs,204,159,95,13,31,8,14,120,0,0
K:\Users\Douglasg14b\Documents\Game Development\The Space Game\Assets\Scripts\WorldObject\Building\Block.cs,171,135,91,5,24,0,12,37,0,0
K:\Users\Douglasg14b\Documents\Game Development\The Space Game\Assets\Scripts\WorldObject\Building\Building.cs,347,264,195,7,55,22,28,239,0,0
K:\Users\Douglasg14b\Documents\Game Development\The Space Game\Assets\Scripts\WorldObject\Building\Buildings.cs,6,4,3,0,1,0,1,8,0,0
K:\Users\Douglasg14b\Documents\Game Development\The Space Game\Assets\Scripts\WorldObject\Building\Core.cs,198,161,111,8,28,5,9,78,0,0
K:\Users\Douglasg14b\Documents\Game Development\The Space Game\Assets\Scripts\WorldObject\Building\CoreMeshCreator.cs,172,159,59,1,9,0,4,4,0,0
K:\Users\Douglasg14b\Documents\Game Development\The Space Game\Assets\Scripts\WorldObject\Building\Grid.cs,44,36,26,0,8,0,0,0,0,0
K:\Users\Douglasg14b\Documents\Game Development\The Space Game\Assets\Scripts\WorldObject\Building\HexMeshCreator.cs,90,73,33,1,11,2,6,12,0,0
K:\Users\Douglasg14b\Documents\Game Development\The Space Game\Assets\Scripts\WorldObject\Building\Armor\ArmorBlock.cs,19,13,9,0,6,0,0,0,0,0
K:\Users\Douglasg14b\Documents\Game Development\The Space Game\Assets\Scripts\WorldObject\Building\Cores\FactoryCore.cs,17,9,5,0,6,0,2,10,0,0
K:\Users\Douglasg14b\Documents\Game Development\The Space Game\Assets\Scripts\WorldObject\Building\Cores\GenCore.cs,16,8,5,0,6,0,2,10,0,0
K:\Users\Douglasg14b\Documents\Game Development\The Space Game\Assets\Scripts\WorldObject\Building\Cores\StorageCore.cs,16,8,5,0,6,0,2,10,0,0
K:\Users\Douglasg14b\Documents\Game Development\The Space Game\Assets\Scripts\WorldObject\Building\Cores\WeaponCore.cs,16,8,5,0,6,0,2,10,0,0
K:\Users\Douglasg14b\Documents\Game Development\The Space Game\Assets\Scripts\WorldObject\Building\Fabrication\FabricatorBlock.cs,17,9,5,0,6,0,2,10,0,0
K:\Users\Douglasg14b\Documents\Game Development\The Space Game\Assets\Scripts\WorldObject\Building\Generators\ReactorBlock.cs,17,13,7,0,4,0,0,0,0,0
K:\Users\Douglasg14b\Documents\Game Development\The Space Game\Assets\Scripts\WorldObject\Building\Generators\SolarBlock.cs,20,16,10,0,4,0,0,0,0,0
K:\Users\Douglasg14b\Documents\Game Development\The Space Game\Assets\Scripts\WorldObject\Building\Nodes\HoverNode.cs,25,1,0,0,5,1,19,46,0,2
K:\Users\Douglasg14b\Documents\Game Development\The Space Game\Assets\Scripts\WorldObject\Building\Nodes\Node.cs,9,6,5,0,3,0,0,0,0,0
K:\Users\Douglasg14b\Documents\Game Development\The Space Game\Assets\Scripts\WorldObject\Building\Nodes\RallyPoint.cs,26,16,11,2,8,0,2,10,0,0
K:\Users\Douglasg14b\Documents\Game Development\The Space Game\Assets\Scripts\WorldObject\Building\Resources\CoreResourceManager.cs,125,100,66,9,20,10,5,142,0,0
K:\Users\Douglasg14b\Documents\Game Development\The Space Game\Assets\Scripts\WorldObject\Building\Resources\GridResourceManager.cs,191,165,103,18,18,18,8,264,0,0
K:\Users\Douglasg14b\Documents\Game Development\The Space Game\Assets\Scripts\WorldObject\Building\Resources\ResourceList.cs,30,23,17,0,5,0,2,14,0,0
K:\Users\Douglasg14b\Documents\Game Development\The Space Game\Assets\Scripts\WorldObject\Building\Storage\StorageBlock.cs,29,23,13,0,6,0,0,0,0,0
K:\Users\Douglasg14b\Documents\Game Development\The Space Game\Assets\Scripts\WorldObject\Building\Upgrading\ListOfBuildableObjects.cs,10,8,5,0,2,0,0,0,0,0
K:\Users\Douglasg14b\Documents\Game Development\The Space Game\Assets\Scripts\WorldObject\Building\Upgrading\UpgradeStats.cs,150,134,61,42,16,0,0,0,0,0
K:\Users\Douglasg14b\Documents\Game Development\The Space Game\Assets\Scripts\WorldObject\Units\Arms.cs,6,4,3,0,1,0,1,8,0,0
K:\Users\Douglasg14b\Documents\Game Development\The Space Game\Assets\Scripts\WorldObject\Units\Harvester.cs,152,1,0,0,0,1,151,556,0,21
K:\Users\Douglasg14b\Documents\Game Development\The Space Game\Assets\Scripts\WorldObject\Units\Unit.cs,173,124,96,5,35,5,14,82,0,0
K:\Users\Douglasg14b\Documents\Game Development\The Space Game\Assets\Scripts\WorldObject\Units\Units.cs,8,5,3,0,3,0,0,0,0,0
K:\Users\Douglasg14b\Documents\Game Development\The Space Game\Assets\Scripts\WorldObject\Units\Unit_Old.cs,194,1,0,0,32,1,161,944,0,2
K:\Users\Douglasg14b\Documents\Game Development\The Space Game\Assets\Scripts\WorldObject\Units\Worker.cs,95,1,0,0,0,1,94,271,0,0
K:\Users\Douglasg14b\Documents\Game Development\The Space Game\Assets\Scripts\WorldObject\Units\Battleship\Battleship.cs,56,36,40,0,11,0,9,23,0,0
K:\Users\Douglasg14b\Documents\Game Development\The Space Game\Assets\Scripts\WorldObject\Units\Fighter\Fighter.cs,47,35,49,0,9,0,3,6,0,0
K:\Users\Douglasg14b\Documents\Game Development\The Space Game\Assets\Scripts\WorldObject\Units\Transport\Transport.cs,37,27,33,0,8,0,2,4,0,0
