Word,Count
the,547
*,435
=,359
to,305
{,217
},210
is,168
//,162
of,150
a,144
for,128
object,123
and,121
if,107
void,99
This,81
private,80
public,79
====,72
new,66
in,61
on,58
an,57
that,56
be,53
queue,50
float,49
this,49
class,47
build,47
from,46
objects,45
it,43
/,43
int,42
list,41
by,38
false;,38
all,38
Sets,36
,36
selected,35
Methods,33
call,33
&&,32
-,32
using,32
will,32
when,31
are,30
unit,30
or,30
End,30
item,30
bool,30
player,29
Start,28
not,28
UI,28
as,27
override,27
event,27
return,27
=====,26
i,26
true;,26
else,25
protected,25
selection,25
so,24
can,24
with,24
building,24
once,23
panel,23
+,23
==,23
bar,22
Recieves,22
Vector3,22
break;,21
called,21
there,21
Class,21
click,21
set,20
//},20
=========================================================,19
Update,19
destination,19
case,19
Adds,19
Public,19
target,19
========,18
>,17
Gets,17
frame,17
Object,16
up,16
resources,16
has,16
referances,16
!=,16
*========================================================,16
Method,16
0;,16
what,16
method,15
into,15
add,15
==========================================,15
virtual,15
+=,15
Resource,15
used,14
Used,14
rotation,14
box,14
Checks,14
name,14
movement,14
==============,14
Rect,14
>();,14
it's,14
The,14
(),14
Screen,14
Building,13
needs,13
health,13
-=,13
handle,13
per,13
info,13
=========,13
Finds,12
i++),12
Movement,12
each,12
Determines,12
//public,12
initialization,12
<,12
activeCursor,12
Texture2D,12
============================================,12
*=========================================================,12
was,12
Will,12
based,12
type,12
need,12
size,11
referance,11
<param,11
Blame:,11
bounds,11
attack,11
CQS,11
we,11
Requirements,11
Use,11
core,11
Doug,11
information,11
Edge,11
Player,11
where,11
topPos,11
====================================================================,11
Referance,11
mouse,11
any,11
To,11
do,10
====================================================,10
one,10
projectile,10
current,10
Calls,10
:,10
here,10
found,10
screen,10
sure,10
System,10
no,10
===========================================================,10
Event,10
game,10
resource,10
2;,9
storage,9
tell,9
range,9
point,9
currently,9
manager,9
data,9
UnityEngine;,9
within,9
make,9
Mouse,9
\ResourceType,\,9
===========,9
Unit,9
line,9
exception,9
0,9
=================================================================,9
checks,9
been,9
Updates,9
Manager,9
at,9
<=,8
Dictionary<,8
Selection,8
PlayerObject,8
initial,8
destroyed,8
top,8
progress,8
default,8
see,8
if(activeCursorState,8
System.Collections;,8
cursor,8
number,8
input,8
creation,8
use,8
for(int,8
Initialization,8
\topPos,\,8
through,8
=======================================================,8
instantiated,8
parent,8
methods,8
I,8
enemy,8
over,8
already,8
RecieveEvent;,8
have,8
don't,8
Returns,7
ID,7
Self,7
const,7
Events,7
then,7
Box,7
they,7
direction,7
hit,7
velocity,7
>=,7
right,7
just,7
ICanBuild,7
button,7
Clears,7
production,7
currentFrame,7
blocks,7
%,7
height,7
0.0039f,7
IMoveableObject,7
stop,7
Add,7
var,7
collection,7
lines,7
width,7
Necessary,7
calls,7
component,7
Conforms,7
coordinates,7
leftPos,7
attached,7
angle,7
area,7
specific,7
loops,7
change,7
find,7
Removes,6
Handles,6
index,6
function,6
||,6
Part,6
create,6
part,6
Build,6
more,6
throws,6
system,6
newly,6
remove,6
appropriate,6
Is,6
Sends,6
actions,6
1;,6
\me,\,6
If,6
subclass,6
2,6
now,6
destination;,6
Color.black;,6
if(player,6
recieve,6
collider,6
(int)Time.time,6
update,6
block,6
BUILD_IMAGE_HEIGHT,6
0.0f;,6
back,6
does,6
than,6
currentLoad,6
like,6
Queue,6
It,6
Left,6
manages,6
elements,6
text,6
color,6
around,6
CoreSys;,6
which,6
Top,6
();,6
value,6
needed,6
\hitPoint,\,6
may,6
whatever,6
FIXTHIS,6
base,6
Objects,6
generated,5
left,5
Construction,5
string,5
collect,5
=====================================================,5
======================================================================,5
======,5
turret,5
built,5
off,5
Creation,5
tangential,5
them,5
List,5
HUD,5
member,5
setting,5
/*,5
edge,5
location,5
BUILD_IMAGE_WIDTH,5
owned,5
Uses,5
such,5
should,5
other,5
testing,5
turrets,5
collections,5
//{,5
===================================================,5
*/,5
rotating,5
=======================================,5
Called,5
Bar,5
well,5
These,5
Screen.height,5
values,5
GetComponentsInChildren<,5
===================================,5
ratio,5
//only,5
centre,5
0),5
moving,5
GUI.EndGroup();,5
startColor.a,5
activeCursorState,5
==============================================,5
===============================================,5
Overload,5
their,5
next,5
instantiate,5
added,5
query,5
children,5
events,5
updates,5
foreach,5
gameobject,5
stack,5
Testing,5
\0.0f,\,5
towards,5
only,5
human,5
Unity,5
Bottom,5
Not,5
playerObject,5
hovering,5
script,5
queues,4
null,4
bottom,4
total,4
standing,4
playingArea);,4
pause,4
available,4
shit,4
cost,4
points,4
Test,4
resourcelisttype,4
BUILD_IMAGE_PADDING;,4
modkey,4
player.human,4
per-frame,4
being,4
output,4
amount,4
=================================================,4
units,4
handles,4
Type,4
hitObject.transform.parent.GetComponent<,4
clicks,4
\object,\,4
Complies,4
arms),4
true,4
vector,4
LINQ,4
StartMove,4
things,4
give,4
BUTTON_SPACING;,4
buildAreaHeight,4
\methods,\,4
damage,4
stuff,4
=======,4
check,4
start,4
ModKeySwitches;,4
clear,4
SCROLL_BAR_WIDTH,4
variable,4
All,4
GUI.skin,4
System.Collections.Generic;,4
Finishes,4
##,4
camera,4
healthPercentage,4
dont,4
targets,4
Update(),4
incoming,4
KeyboardEvents.MiscButtonHeldEvent,4
bars,4
draw,4
harvesting,4
idea,4
its,4
In,4
<summary>,4
GUI.BeginGroup(new,4
amountBuilt,4
vectors,4
actually,4
destinations,4
both,4
evnt),4
every,4
shift,4
Engine,4
//private,4
Members,4
\height),\,4
position,4
look,4
Adjustments,4
MonoBehaviour,4
emptying,4
arm,4
|,4
Recieved,4
under,4
grid,4
currentlySelected,4
\width,\,4
how,4
anymore,4
(int,4
Vector3.zero);,4
me,4
healthStyle.normal.background,4
4,4
mesh,4
buttons,4
Rotates,4
======================================,4
\comments,\,4
paths,4
Right,4
rotstat,4
Game,4
switch,4
Color,4
usage,4
split,4
clicked,4
Hover,4
instead,4
managing,4
corner,4
CursorState,4
\Rect(leftPos,\,4
overridden,4
hook,4
inspector,4
================================================,4
going,4
Misc,4
</summary>,4
**,4
owner,4
also,4
//calculate,4
0);,4
0f);,4
necessary,4
//Sets,4
baby,4
work,4
base.Start();,4
metal,3
z,3
activeCursorState;,3
controller),3
Currently,3
too,3
out,3
encapsualte,3
\false,\,3
complete,3
active,3
this.loaded,3
GUIStyle();,3
New,3
updated,3
runs,3
drawing,3
endColor,3
moveHover,3
=============================================,3
Switch,3
Click,3
//Draws,3
static,3
\"\ShiftUp"\:\,3
Applies,3
THE,3
base.Update();,3
Material,3
default:,3
reached,3
classes,3
friendly,3
ignore,3
By,3
draws,3
way,3
button),3
endColor.b,3
Unused,3
Screen.showCursor,3
Bounding,3
fields,3
time,3
surplus,3
hold,3
rotated,3
key's,3
double,3
player;,3
onto,3
interface,3
before,3
program,3
targetRotation,3
deletion,3
\textLeft,\,3
after,3
power,3
Everyone,3
Screen.width,3
construction,3
directly,3
while,3
GUIStyle,3
circleMadeBool,3
Time.deltaTime;,3
sliderValue,3
startColor.g,3
go,3
Cursor,3
==================================,3
related,3
Incriments,3
correct,3
items,3
null;,3
(button),3
wrapper,3
always,3
longer,3
//protected,3
Determine,3
above,3
forwarded,3
Debug,3
StartMove(Vector3,3
faster,3
lastFwd,3
harvester,3
endColor.r,3
orthogonal,3
ghost,3
Handling,3
upgrade,3
//make,3
without,3
ctrl,3
\"\Ground"\)\,3
originalExtents,3
//FIXTHIS,3
Set,3
shorter,3
placement,3
Panning,3
Changes,3
\"\Shift"\:\,3
x,3
Destroys,3
==============================================================,3
harvestType,3
currentDeposit,3
\iconLeft,\,3
controller);,3
our,3
CalculateBounds();,3
\Debug.Log("\Destroyed\,3
mod,3
deposit,3
knows,3
removal,3
disabled,3
detected,3
canFire,3
arms,3
currentlySelected),3
additional,3
startColor,3
ground,3
center,3
Core,3
numbers,3
initiates,3
100%,3
mode,3
Damage,3
IBuildableObject,3
false,3
destiantion,3
keep,3
maintain,3
foreach(Arms,3
Held,3
OnDisable(),3
those,3
if(currentLoad,3
GameObject,3
Statements,3
For,3
Provides,3
still,3
Camera,3
Block,3
KeyboardEvents.MiscButtonUpEvent,3
end,3
\base.MouseClick(hitObject,\,3
\called,\,3
move,3
capacity;,3
gets,3
certain,3
EventArgs,3
view,3
general,3
you,3
IBuildable,3
================================,3
rally,3
image,3
name),3
OnEnable(),3
shiftHeld,3
Broken,3
\gameObject.transform.FindChild("\Object\,3
<returns></returns>,3
Referances,3
GUI.DrawTexture(new,3
startColor.r,3
startColor.b,3
endColor.g,3
Yes,3
ICanAttack,3
sets,3
/////,3
arm.renderer.enabled,3
Vars//,3
User,3
\destination,\,3
same,3
send,3
fix,3
(var,3
making,3
fired,3
goes,3
sphere,3
requested,3
provides,3
\hitObject,\,3
LowerLeft,2
selectionBounds;,2
Unknown,2
reasons,2
destination.z,2
There,2
\lineCircle.SetColors(linecolor,\,2
positive,2
selectBox),2
capacity,2
speed,2
Some,2
single,2
issue,2
Modifyers,2
===,2
Class's,2
empty,2
Existing,2
Also,2
colliders,2
waiting,2
line.enabled,2
\name="\player"\></param>\,2
Creates,2
ScrollWheel,2
unit;,2
//KeyboardEvents.MiscButtonUpEvent,2
insert,2
during,2
Component,2
==========================================================,2
\"\"\);\,2
creates,2
//39,2
numBlocksToShow,2
creator),2
buttons.active.background,2
\Vector3(x,\,2
Arms,2
\CheckForPlayer(gameObject,\,2
overage,2
recieves,2
\GUI.DrawTexture(buildPos,\,2
mask,2
numActions,2
space,2
shown,2
==================================================================,2
velocities,2
this.destination,2
Disabled,2
linecolor);,2
Arms[],2
about,2
server,2
possible,2
search,2
\playerObject.ObjectName,\,2
40;,2
meant,2
TOFIX,2
depositType,2
//SpriteRenderer,2
centered,2
//Initially,2
\"\Game\,2
//decides,2
fires,2
between,2
chosen,2
purpose,2
OnGUI,2
500;,2
\4,\,2
UpperLeft,2
this.readyPlayers.Clear();,2
moveCursors.Length;,2
finding,2
hack,2
iconLeft,2
easier,2
spell,2
previousCursorState,2
\healthy,\,2
percentage,2
another,2
across,2
Switches,2
rather,2
transform,2
shorthand,2
initially,2
moveCursors[currentFrame];,2
retireved,2
downCursor;,2
representing,2
row,2
somewhere,2
linesToDraw,2
turned,2
Draws,2
whether,2
if(healthPercentage,2
DestroyCircle();,2
GUI.Label(new,2
Functions//--------------------------------------------------------------------------------------------//,2
if(player.SelectedObject),2
Find,2
select,2
(Sprite),2
depending,2
\BUILD_IMAGE_WIDTH,\,2
deposit;,2
buttons;,2
SELECTION_NAME_HEIGHT,2
TEXT_WIDTH;,2
\Scene"\)]\,2
erased,2
base.SetHoverState(hoverObject);,2
transform.forward;,2
204,2
modules,2
moved,2
returns,2
Take,2
render,2
selected;,2
Methods//-----------------------------------------------------------------------------------------------------//,2
hoverObject),2
originalExtents.x,2
transforms,2
Instantiates,2
mouseCursorSkin;,2
rotstatus,2
if(harvestType,2
components,2
hoverObject.transform.parent.GetComponent<,2
\damaged,\,2
ang,2
//204,2
checkrot,2
Catalyse,2
Debug.Log(collider.gameObject.name,2
/*===========================================================,2
normalExtents.Normalize();,2
setup,2
Box//---------------------------------------------------------------------------------------------------------------//,2
state,2
firingLocation,2
much,2
Renderer,2
SetSelection(bool,2
angle),2
Side,2
selectionBounds,2
sole,2
Panel,2
7;,2
priority,2
bitch,2
decide,2
sent,2
switches,2
0.2f;,2
=========================,2
if(building),2
base.SetBuilding,2
normalExtents.x;,2
\"\\,2
=====================================,2
(GameObject,2
linecolor.a,2
Ore[],2
Destroy,2
objectHUD.CreateObjectInfoPanel(new,2
sprites,2
rightclick,2
Functions//----------------------------------------------------------------------------------------------//,2
harvestType;,2
Pulls,2
\playerObject.MaxHitPoints,\,2
\function,\,2
fall,2
reduce,2
although,2
RecieveEvent(string,2
\playerObject.HitPoints,\,2
below,2
1,2
We,2
\interface,\,2
ratios,2
outside,2
Up,2
previousCursorState;,2
syntax,2
held,2
selectBox.y,2
----,2
\(transform.position,\,2
===========================================,2
===================================================================,2
Counter,2
=================================,2
movements,2
lastSelection,2
throw,2
arent,2
\works,\,2
anchors,2
GameState.Current.ActivePlayers),2
\corner,\,2
//FIXTHIS//,2
rotate,2
Lots,2
//75,2
honored,2
retrieve,2
SetHoverState(GameObject,2
either,2
adding,2
width/height,2
165,2
global,2
attacking,2
Totally,2
Fields,2
From,2
GameState.Current.state.Playing,2
\PointDefenseRange"\);\,2
HUDPanel,2
//Determines,2
get;,2
functions,2
buttons.hover.background,2
SetBuilding,2
What,2
coroutine,2
cursors,2
mousePos.y,2
0.7956f;,2
currentProject,2
\resourceValues,\,2
cannon,2
0.6669f;,2
playingArea),2
playerObject.player.name));,2
y,2
beign,2
Of,2
=======================,2
Ctrl,2
Attacking,2
//165,2
GUI.skin.button,2
string[],2
doBase,2
best,2
detect,2
UpperRight,2
mousePos.x,2
topPos);,2
originalExtents;,2
ResCheck,2
matches,2
Filters,2
CursorState.RallyPoint),2
Redundant,2
linecolor,2
0.1521f;,2
selectionName,2
Bounds,2
except,2
completed,2
Mode,2
array,2
\Sprite"\).GetComponent<SpriteRenderer>();\,2
RESOURCE_BAR_HEIGHT,2
newState),2
if(resource,2
weapon,2
Methods//--------------------------//,2
allows,2
Parent,2
BUILD_IMAGE_HEIGHT;,2
\units,\,2
sight,2
======================================================,2
Get,2
incriment,2
\resources,\,2
Check,2
chunk,2
subscribers,2
compile,2
\hud,\,2
\ORDERS_BAR_WIDTH,\,2
column,2
//Doesnt,2
//255,2
Image,2
proceeds,2
stops,2
ran,2
curAngleX,2
Unit.cs,2
Bolt.GlobalEventListener,2
Button,2
Temp,2
resources[i]);,2
OnGUI(),2
attackCursors.Length;,2
isobject,2
lineCircle.SetVertexCount(segments);,2
connection),2
drawn,2
allowing,2
transform.root.GetComponent<,2
Functions//----------------------------------------------------------------------------------------//,2
insideWidth,2
0-1,2
//This,2
ore,2
0.1326f;,2
side..,2
determine,2
getting,2
own,2
HUD.cs,2
IPlayerObject,2
removed,2
actdist),2
\maxBounds.y,\,2
(Building,2
last,2
target's,2
RangeCheck,2
Loop,2
Moves,2
When,2
textLeft,2
hit.point;,2
playerObject)),2
WO,2
X/Y,2
CursorState.Harvest),2
player.human),2
Refer,2
normalExtents,2
Rolls,2
\Vector3(maxBounds.x,\,2
behind,2
//171,2
sort,2
Ore,2
resourceLimits;,2
Create,2
highSplit),2
if(deposit,2
ResourceType,2
endColor);,2
//34,2
custom,2
adjust,2
types,2
present,2
shot,2
!resource.isEmpty()),2
RangeCheck;,2
0.6435f;,2
//KeyboardEvents.MiscButtonHeldEvent,2
yet,2
selected),2
allow,2
true),2
objectSpriteRenderer,2
\line.SetColors(startColor,\,2
less,2
bools,2
true);,2
destination);,2
Attached,2
//Start,2
\minBounds.y,\,2
numberOfExtents,2
hovered,2
0.2925f;,2
entry,2
attackCursors[currentFrame];,2
//Gets,2
define,2
Interface,2
resourcelist,2
GUI.Box(new,2
Throws,2
harvestCursors.Length;,2
later,2
variables,2
Time.deltaTime,2
e),2
map),2
Time,2
modify,2
parents,2
menu,2
targetShift,2
Color.white;,2
evnt,2
Remove,2
icon,2
status,2
really,2
ArmorBlock,2
AttackBoundary,2
Line,2
*============================================,2
child,2
modification,2
LowerRight,2
detecting,2
want,2
Cycles,2
transform.position;,2
managed,2
deincriment,2
GetComponent<LineRenderer>();,2
MouseClick(GameObject,2
Hitting,2
if(Parent.placement),2
\Vector3(minBounds.x,\,2
Prevents,2
OnPointerClick,2
never,2
if(hoverObject.name,2
maxHeight,2
get,2
\first,\,2
Coloring,2
evnt.Send();,2
Awake(),2
set;,2
14,2
\32,\,2
0.0f);,2
try,2
WorldObject,2
publish,2
\y,\,2
StopDrawingLine();,2
BUILD_IMAGE_HEIGHT);,2
effect,2
disabledInfoPanel,2
Mathf.FloorToInt(numberOfExtents);,2
0.0546f;,2
harvestCursors[currentFrame];,2
//????,2
Shift,2
Modification,2
selectBox.width,2
//if,2
textures,2
actionToPerform),2
kk,2
activeCursor.height;,2
intercept,2
force,2
itself,2
vector3,2
prefabs,2
inefficient,2
expand,2
code,2
entire,2
1),2
user,2
visible,2
Each,2
LineRenderer,2
//14,2
performance,2
together,2
//Resource,1
circles,1
DoubleClickSelection,1
\line.SetPosition(0,\,1
\MissingComponentException("\The\,1
\moveSpeed,\,1
ResourceManager.GetResourceHealthBar(harvestType);,1
images,1
GetComponentsInChildren<Collider>();,1
SetHealthBar();,1
CursorState.Harvest:,1
(hopefully),1
tightly,1
(rotating,1
objectMovement.Value.MoveableObject.transformV.up,1
ghosts,1
\Enable,\,1
Handling//--------------------------------------------------------------------------------------//,1
slider,1
numBlocks,1
valid,1
//Fine,1
(!currentProject.UnderConstruction,1
\upCursor,\,1
\"\Disabled"\</param>\,1
<-targetVel,1
excess,1
TEXT_WIDTH,1
\Finally,\,1
MouseInBounds(),1
Blocks,1
//Min,1
//Makes,1
\usage,\,1
lineCircle.SetVertexCount(1);,1
similar,1
Scales,1
aiming,1
DetermineBoundingBoxPoints(),1
//draw,1
forward,1
ResourceType.Ore),1
Checks//-----------------------------------------------------------------------------------------------------------//,1
player</param>,1
Loops,1
verifying,1
\player.SelectedObject.SetSelection(false,\,1
shiftAmount;,1
\Mathf.Atan2(vectorToTarget.y,\,1
conditions,1
DrawSelection(),1
sides,1
BUTTON_SPACING);,1
ResourceManager.DamagedTexture;,1
22;,1
management,1
scroll,1
DrawResourcesBar(),1
fire,1
would,1
accumulate,1
>()),1
currentposition,1
\"\Weapons"\\,1
notes,1
\Unit"\);\,1
wont,1
(project);,1
(maxHeight,1
ReadyGameCoroutine(),1
//Max,1
aits,1
if(lastSelection,1
\name="\player"\>The\,1
Performs,1
Variables,1
this.readyPlayers.Add(GameState.Current.GetPlayer((int)evnt.RaisedBy.ConnectionId));,1
Overrides//,1
Tracking//------------------------------------------------------------------------------------//,1
unit.destinationsList[i,1
Mgmt//------------------------------------------//,1
MaxNumRows(groupHeight));,1
51;,1
Configure,1
\line.SetPosition(1,\,1
44;,1
flaotign,1
unsure,1
Handling//--------------------------------------------------------------------------------------------------------------------//,1
DrawStandardBuildingOptions(selectedBuilding);,1
(the,1
objectName;,1
path,1
GUI.Label,1
ResourceManager.InvalidPosition;,1
Vector3.forward);,1
\friendly,\,1
GetComponent<Player>();,1
Checking,1
\Friendly,\,1
targetVelOrth,1
unit.name,1
GetActions(),1
HUDPanel;,1
DrawResourceIcon(ResourceType,1
queuedSpawns,1
\//line.SetPosition(0,\,1
Calling,1
Script,1
actions;,1
\MissingComponentException("\There\,1
hover,1
\ICON_HEIGHT),\,1
steps,1
Sides,1
MouseClick,1
building.rallyPointImage)),1
Signals,1
percentFull,1
\Rect(selectBox.x,\,1
most,1
Instantiation,1
processes,1
miniscule,1
solution,1
DrawStandardBuildingOptions(Building,1
among,1
\location,\,1
//if(!player.IsFindingBuildingLocation()),1
WorldObject.SetHoverState,1
ResourceManager.SetResourceHealthBarTextures(resourceHealthBarTextures);,1
buttonClick;,1
replaced,1
Battleship,1
queueitems,1
rect,1
destinationTarget.GetComponent<,1
Projectile</param>,1
Draw//=,1
building),1
\Rect(BUILD_IMAGE_PADDING,\,1
BUILD_IMAGE_PADDING,1
adjusts,1
activeCursor.width,1
UpperLeftPoint,1
\UpperLeftPoint,\,1
Bullet,1
cluster,1
retain,1
capacity),1
\built,\,1
\if(Quaternion.Angle(transformV.rotation,\,1
Rect(2,1
\method,\,1
\length,\,1
roatation,1
Retrieves,1
//if(target),1
\doing,\,1
ship/building,1
accessed,1
specified,1
catch,1
column),1
{//add,1
(!loaded),1
buttonHover;,1
\Destroyed"\);\,1
CursorState.PanUp;,1
buildPoint,1
if(linesToDraw,1
Mathf.Floor(currentLoad);,1
Takes,1
destinationTarget.transform.position.y;,1
modified,1
Progress,1
Down,1
75,1
building.GetComponentInChildren<Core>();,1
vars,1
playingArea,1
us,1
areaHeight),1
ResourceType.Unknown;,1
StopHarvest(),1
TurnToTarget(),1
GetCursorDrawPosition();,1
broke,1
add/update,1
Ran,1
CursorState.RallyPoint,1
SetLineColors(),1
DrawMouseCursor(),1
CheckForPlayer(playerObject);,1
unsubscribe,1
strategic,1
\Physics2D.Linecast(transformV.position,\,1
enabled;,1
THIS,1
SetLightColor(),1
(player,1
\action,\,1
MaxNumRows(buildAreaHeight)),1
statement,1
Right/Left,1
//testing,1
destination.y,1
origin,1
Input.mousePosition.y;,1
StartHarvest(resource);,1
Destroying,1
if(action),1
overloaded,1
ReferanceTracker,1
explanation,1
text);,1
KeyboardEvents.MiscButtonUpEvent+=,1
Stop,1
(this,1
places,1
\Rect(left,\,1
SetDarkColor(),1
scene,1
\resourceValues.Add(ResourceType.Power,\,1
CursorState.RallyPoint:,1
healthbar,1
illusion,1
CalculateTargetDestination(),1
buildFrame);,1
asteroids,1
destinationTarget,1
\Sprite"\).gameObject;\,1
tag,1
How,1
GetSelectionBounds(),1
you're,1
GUISkin,1
alrge,1
Getters,1
=0;,1
players,1
inserted,1
rows,1
//else,1
.NET,1
DrawSlider(int,1
returnVector.x;,1
colorKeyG,1
1f);,1
\ResourceManager.StoreSelectBoxItems(selectBoxSkin,\,1
\lineCircle.SetPosition(0,\,1
(ie,1
\SetupPanelSwitch("\Both"\);\,1
boxes,1
returnObject,1
=========circles,1
216;,1
if(playerObject),1
Settng,1
IEnumerator,1
inactive,1
passes,1
(GUI.Button(new,1
CalculateCurrentHealth(float,1
missing,1
CheckUnitRotation();,1
topPos),1
\"\Power"\:\,1
buildPos,1
\"\"\;\,1
ActiveBuildingList.FirstOrDefault(o,1
transform.position,1
\rallyPointCursor,\,1
Alternative:,1
\resourceLimits.Add(ResourceType.Power,\,1
CurrentBuilding,1
lastFwd).x,1
\Quaternion.AngleAxis(angle,\,1
unit/building,1
//display,1
Rotations,1
CreateBuilding(string,1
upCursor;,1
(objectMeshrenderer,1
distcheck;,1
//Turning,1
panning,1
////Calls,1
if(circleMadeBool,1
\enemy,\,1
breaking,1
\metalCost,\,1
Clicking,1
currentProject;,1
inverted,1
Ghost,1
//location,1
Private,1
\DrawSlider(buildAreaHeight,\,1
\5),\,1
TEXT_HEIGHT,1
\testing,\,1
GameClientBehaviour,1
selectable,1
Destinations,1
\AudioManager.Instance.SetMusic(AudioManager.Instance.Music.BackgroundOne,\,1
(core.hasSpawnPoint()),1
Max,1
\buildMask,\,1
SetPlayer(),1
calculations,1
deformed,1
ModKeySwitches(string,1
Override,1
CursorState.PanDown:,1
3,1
if(curFwd,1
measure,1
staying,1
\label,\,1
GetComponent<SelectionBox>();,1
Bars,1
destiantion.z,1
On,1
===============================================================,1
RESOURCE_BAR_HEIGHT);,1
\destroyed,\,1
(objectSpriteRenderer,1
significant,1
(amount,1
non-default,1
avoid,1
\Rect(0.0f,\,1
Methods//---------------------------------------------------------------------------------------------------------//,1
auto-generated,1
Upgrading//,1
hitPoint.x;,1
CursorState.PanDown),1
place,1
Disables,1
visualize,1
\type,\,1
//Actions,1
InitializeBuildPanel(bool,1
player.Equals(owner)),1
\resourceValues.Add(ResourceType.Metal,\,1
Quaternion,1
coupled,1
activeCursor);,1
Math.floor,1
//Resources//-------------------------------------------------------------------------------------//,1
endColor.a,1
CursorState.Move,1
14;,1
objectmanager,1
MoveObjectToDestination();,1
\64,\,1
DrawSelectionBox(Rect,1
(amountBuilt);,1
slow,1
must,1
deincriments,1
player.SelectedObject.objectName;,1
BUILD_IMAGE_WIDTH;,1
Starts,1
(hit.transform.gameObject.GetInstanceID(),1
////Mouse,1
destination){,1
tack,1
this;,1
MovementPaths,1
binary,1
four,1
CursorState.PanUp:,1
manage,1
\Vector3.MoveTowards(transform.position,\,1
clears,1
//store,1
resources.Length;,1
\buildPoint,\,1
ObjectHUDPanel,1
2),1
MouseWheel,1
playerObject.GetSelectionBounds().extents;,1
//Draw,1
//giving,1
Provide,1
Functions//-------------------------------------------------------------------------------------------------------//,1
worldobj,1
tick,1
//1<<13,1
transform.rotation,1
retirieved,1
ResourceManager.GetResourceHealthBar(resourceType);,1
curAngleX..,1
count;,1
touching,1
mediator,1
Cached,1
Goes,1
\Building,\,1
maxBounds;,1
projecting,1
//UpdateCursorAnimation();,1
(1,1
resourceImages[type];,1
Setters,1
Methods//--------------------------------------------------------------------------------------------------//,1
priorities,1
bitches),1
collide,1
Overloads,1
\smallButtonClick,\,1
Base,1
SUB,1
foreach(Renderer,1
distcheck,1
numRows,1
\Rect(textLeft,\,1
\GameObjects,\,1
\Rect(BUILD_IMAGE_WIDTH+SCROLL_BAR_WIDTH,0,ORDERS_BAR_WIDTH,Screen.height-RESOURCE_BAR_HEIGHT),"\"\);\,1
RaycastHit2D,1
IS,1
transform.root.GetComponentInChildren<,1
Methods//----------------------//,1
resourceHealthBars.Length;,1
0.01){,1
CursorState.Select:,1
OnEvent(PlayerReadyEvent,1
this.queuedSpawns.Enqueue(connection);,1
hitPoint.y;,1
(new,1
buildMask);,1
//change,1
numActions;,1
reverse,1
increase,1
Nodes,1
Down-Button,1
Mathf.FloorToInt(currentLoad);,1
hit...etc,1
\prefab,\,1
ResourceManager.CriticalTexture;,1
=>,1
BACK,1
Name,1
player.SelectedObject.PerformAction(actions[i]);,1
//screen,1
<-targetVelTang,1
destination.x;,1
Transform,1
Transport),1
scale,1
GameServerBehaviour,1
segments);,1
()),1
y;,1
short,1
basis,1
intercepts,1
\"\Ground"\\,1
UpperRightPoint,1
Based,1
emptying),1
\Enemy,\,1
\"\ore"\:\,1
targetRotation;,1
accurante,1
(this.queuedSpawns.Count,1
wider,1
eventually),1
include,1
disgusting,1
WorkManager.cs,1
\RESOURCE_BAR_HEIGHT,\,1
Making,1
selectionBoxRect;,1
vectorToTarget.x),1
mean,1
currentLoad;,1
RotateObjects();,1
\q,\,1
lowsplit,1
resourceHealthBarTextures,1
\lineCircle.SetPosition(i,\,1
\that,\,1
class),1
turning,1
fucked,1
Points//----------------------------------------------------------------------------------------------------------------//,1
made,1
\buildQueue,\,1
\leftCursor,\,1
Timer,1
TurnToTarget();,1
rounded,1
CreateObjectInfoPanel(new,1
\attackRange,\,1
targetRotation),1
actdist);,1
comments,1
.05),1
pass,1
currentProject.Construct,1
InRange(project)),1
Vector3.Distance,1
-1f;,1
run,1
segments,1
\UIObjectInfoType(objectSpriteRenderer.sprite,\,1
sorted,1
Or,1
prefab,1
neccesary,1
canvas,1
correction,1
Stops,1
//Is,1
buildSpeed,1
concept,1
\StartMove(project.transform.position,\,1
player.CurrentPickup,1
\0,\,1
column);,1
if(numBlocksToShow,1
DrawActions(string[],1
\LowerRightPoint,\,1
believe,1
line.SetVertexCount(linesToDraw);,1
Initially,1
if(!circleMadeBool,1
HoverNode,1
future,1
SetCursorState(CursorState.RallyPoint);,1
record,1
minBounds,1
AttackRangeDetect,1
BattleshipAttack,1
rotating;,1
building/object,1
64;,1
StartHarvest(Resource,1
\list,\,1
SetColliderOffsetRotation();,1
Handle,1
//set,1
\buildFrame,\,1
//Sellvalue,1
Disable,1
s--->,1
lineCircle,1
why,1
\Remove,\,1
//if(resource,1
Passes,1
//UpperRight,1
if(harvesting),1
Overlaod,1
require,1
sign..,1
t,1
insertion,1
\"\Money"\:\,1
highsplit,1
AllPlayersReady(),1
percentFull;,1
Functions//---------------------------------------------------------------------------------------------------//,1
ally,1
sliderValue;,1
destroyed//,1
Harvester,1
Instantiated,1
\WorkManager.CalculateSelectionBox(selectionBounds,\,1
possibly,1
\GameObject.Find("\ObjectHUD"\).GetComponent<ObjectHUDPanel>();\,1
PlayerSettings.productName;,1
//Handles,1
\Time"\);\,1
Now,1
know,1
\Battleship,\,1
UserInput.cs,1
buildingName),1
\collectionAmount,\,1
grabs,1
35;,1
amount;,1
/***,1
inside,1
\resourceHealthBarTextures.Add(ResourceType.Ore,\,1
hitPoint,1
//Need,1
e.HitObject.GetComponent<PlayerObject>();,1
selectionName);,1
ResourceManager.InvalidBounds;,1
RemoveAllDestinationsForObject();,1
remains,1
IMoveableObjects,1
(int)(percentLeft,1
\mode,\,1
SetCursorState(CursorState,1
DrawAllLines(),1
selectCursor;,1
resourceSkin;,1
\DrawHealthBar(selectBox,\,1
actively,1
\any,\,1
\values,\,1
bit,1
hit)),1
So,1
currentposition);,1
-ang;,1
Deposit(),1
activeCursor;,1
Resources//---------------------------------------------------------------------------------------------------------------//,1
transparent;,1
\game,\,1
project;,1
Points,1
//slider,1
endColor;,1
pythagoras,1
resourceStore,1
\line.SetWidth(0.2f,\,1
transformV.forward,1
subtracting,1
pythagoran,1
ghosted,1
MovementCircle,1
refer,1
accordingly,1
\constructors,\,1
Creation//-----------------------------------------------------------------------------------------------------//,1
healthStyle);,1
\rightCursor,\,1
Shit,1
\name="\collectionName"\>Acceptable\,1
t.gameObject.SetActive(false);,1
25;,1
0-255,1
CPU,1
/*=======================================================,1
defualt,1
Preventing,1
named,1
Children,1
units.Length;,1
RightClickObject(RClickEventArgs,1
InRange(Building,1
eliminated,1
|/,1
travel,1
(unit.IsSelected),1
Behavior,1
/old,1
//sets,1
SetLightColor();,1
facilitates,1
\healthPercentage,\,1
buildPercentage;,1
aware,1
base.Awake();,1
//Screen,1
initialize,1
15;,1
playing,1
resourceBar);,1
CursorState.PanRight,1
retieve,1
returnVector.y,1
access,1
(Vector3.Distance,1
elemenbts,1
\player.OM.createBuilding(buildingName,\,1
activelist,1
Rotate,1
CreateCircle();,1
\Vector3(0.0f,\,1
//this,1
GetCursorState(),1
Using,1
*=,1
ResourceType.Unknown,1
Selected,1
Item,1
vectorToTarget,1
Level,1
Essentially,1
Vector2,1
returnVector.y;,1
if(selectedBuilding),1
GetCursorDrawPosition(),1
\DrawBuildQueue(selectedBuilding.getBuildQueueValues(),\,1
//LowerRight,1
sortedBlocks,1
Here,1
moar,1
//reset,1
cleaned,1
gameObject.name);,1
height);,1
SetCursorState(CursorState.Select);,1
\Rect(BUTTON_SPACING,\,1
referanced,1
playerObject.cs,1
Counts,1
hovers,1
BuildQueue,1
reaches,1
catches,1
Double,1
given,1
q,1
(unit.Moving),1
StartMove(destination);,1
\Rect(iconLeft,\,1
//CalculateBounds();,1
CursorState.Attack),1
selectedBuilding,1
deselected,1
cores,1
animation,1
\Parent.SetTransparentMaterial(solid,\,1
//adjust,1
behavior,1
decided,1
//create,1
-5);,1
handling,1
List<GameObjectMovesList>,1
yRadius),1
\selectionBox.RecieveBoxCall(selected,\,1
OnEvent(SpawnPlayerEvent,1
Checks//------------------------------------------------------------------------------------------------------//,1
keyboard-related,1
whole,1
Management,1
designated,1
\hitObject.name!="\Ground"\)\,1
abck,1
Deletes,1
..,1
Their,1
seperate,1
unit.destinationsList.Count),1
\view,\,1
panels,1
buildclick,1
SetPlayingArea(Rect,1
icon);,1
themselves,1
Child,1
frankenstein,1
opposing,1
building.name,1
resourceLimits,1
resourceDeposit.Remove(collect);,1
extend,1
\10,000\,1
Only,1
including,1
\TEXT_WIDTH,\,1
if((hitObject.name,1
\base.StartMove(destination,\,1
Function,1
resourceValues,1
responsability,1
canceling,1
evnt.Position,1
13);,1
fewer,1
(segments);,1
PerformAction,1
dropped,1
//if(player.SelectedObject),1
Erases,1
colliders),1
simpler,1
coupling,1
GetComponent<Unit>();,1
moving;,1
depositAmount;,1
probably,1
//not,1
Methods//-----------------------------------------------------------------------------------------------//,1
De-Incriments,1
offset,1
Do,1
(isobject),1
belong,1
Grabs,1
placed,1
!WorkManager.ResCheck(hitObject),1
\DrawResourceIcon(ResourceType.Metal,\,1
buildqueue,1
ceiling,1
length,1
neccesarily,1
\disgusting,\,1
DrawSelectionBox(selectBox);,1
GetScrollPos(int,1
flip.x,1
SetDarkColor();,1
aded,1
ResourceManager.SelectBoxSkin;,1
cursoe,1
reset,1
\Quaternion.Slerp(transform.rotation,\,1
k,1
//Pulls,1
unitShift;,1
rightCursor;,1
\(Unit,\,1
\if(GUI.Button(pos,\,1
destination),1
ActionDistance;,1
selects,1
1-10,1
Texture2D[],1
Same,1
(players[i].ConnectionID,1
Exception,1
newState;,1
holder,1
transformV.position,1
side,1
destination.actionDistance),1
(ang,1
\Enviornmental,\,1
player.hud.SetCursorState(CursorState.Move);,1
Checking=======,1
Every,1
activeCursor.height,1
player.SelectedObject),1
cursorPosition,1
OnEvent(PlayerWinEvent,1
4;,1
Thing,1
destination.transform.position),1
depreciated,1
(destinations),1
serves,1
\Rect(0,0,Screen.width,RESOURCE_BAR_HEIGHT),"\"\);\,1
//clicked,1
LowerRightPoint,1
if(resourceBar),1
corners,1
contains,1
mouse-related,1
\name="\type"\></param>\,1
exists,1
>();//init,1
resource.isEmpty,1
1];,1
(o.ObjectName,1
\objects,\,1
\[BoltGlobalBehaviour(BoltNetworkModes.Client,\,1
//SetBuilding(building);,1
healthStyle.fontStyle,1
Functions//-----------------------------------//,1
Node,1
blocks.Length),1
icons,1
Instantiate,1
Queue<BoltConnection>();,1
package,1
0.588f;,1
thefuckisthisNULLBULLSHITBITCH,1
255,1
\Bounds(transform.position,\,1
CreateCircle(),1
\smallButtonHover,\,1
Offsets,1
//makes,1
Commended,1
\TEXT_HEIGHT),\,1
transparency,1
\WO,\,1
GetComponentInParent<Unit>();,1
chance,1
if(unit.IsSelected),1
\Fighter,\,1
powerProduction;,1
selections,1
this.renderer.bounds.min;,1
if(numActions,1
bee,1
Sell,1
memoryleaks,1
project),1
since,1
lower-left,1
buildPercentage);,1
1.0f;,1
something,1
(o.OwningPlayer,1
GameServerBehaviour.cs,1
calculates,1
LOT,1
re-enabled,1
#,1
null),1
resourceHealthBars;,1
normalized,1
line.SetVertexCount(0);,1
taller,1
starting,1
e.GetComponent<PlayerObject>();,1
Mathf.FloorToInt(currentDeposit);,1
enters,1
temporary,1
rotateSpeed;,1
Canvas,1
unit.Moving),1
###,1
property,1
\row,\,1
Generic,1
\sprite,\,1
//if(player),1
=============================================================,1
5;,1
Rotating,1
75;,1
\sliderValue,\,1
\ordersSkin,\,1
buildings.Length;,1
actual,1
overhead,1
//---------------------------------------------------------------------------------------------------//,1
Edge-Of-Screen,1
\(resourceStore.transform.position,\,1
sortedBlocks.Length;,1
Input.mousePosition;,1
if(doBase){,1
(based,1
\name,\,1
connection.ConnectionId),1
merge////////////////,1
rely,1
festination,1
2.0f);,1
sortedBlocks[i].renderer.enabled,1
(creator);,1
decimal,1
if(destination,1
levels,1
LoadingScreenUI.Instance.transform),1
\this.StartCoroutine("\ReadyGameCoroutine"\);\,1
WorldEdit,1
\BUTTON_SPACING,\,1
resourceDeposit,1
()){,1
Worker,1
Ray,1
if(true),1
entirely,1
OnMouseExit(),1
removes,1
non-clicked,1
\titaniumProduction,\,1
Backwards/Down,1
Manager)</param>,1
SelectionBox,1
ICON_HEIGHT,1
\second,\,1
SceneLoadRemoteDone(BoltConnection,1
8;,1
//Resources,1
linesToDraw;,1
enviornmental,1
z));,1
extents,1
0.0039,1
this.renderer.bounds.max;,1
\1.0,\,1
\selectBoxSkin,\,1
\SCROLL_BAR_WIDTH,\,1
player1,1
Creating,1
tall,1
(hit.transform,1
fabrication,1
Be,1
happens,1
\selectCursor,\,1
hit),1
selectionbox,1
line.SetVertexCount(unit.destinationsList.Count,1
sucessfully,1
depositAmount,1
creator;,1
provide,1
Random,1
(currentlySelected),1
Calculates,1
//What,1
List<GameObjectMovesList>();,1
10,1
\resourceLimits.Add(ResourceType.Metal,\,1
buildAreaHeight));,1
currentLoad),1
looking,1
Store,1
(375f,1
Atttacking,1
\anymore,\,1
hooks,1
\evnt.Position,\,1
UIObjectslist,1
numRows),1
Selection/Deselection,1
\Rect(65,\,1
(movementLists.Count,1
<-shotVelTang,1
Must,1
Sections,1
works,1
player),1
toggle,1
listing,1
if(!moving),1
//UpperLeft,1
SetPlayer();,1
ore;,1
currentlyAttackingObject.InstanceID),1
relies,1
\"\Unused"\;\,1
//Broken,1
rallyPointCursor;,1
unit.cs,1
\buttonClick,\,1
//shrink,1
quite,1
***/,1
lastFwd;,1
prompt,1
timer,1
\fine,\,1
definition,1
(Rect,1
1f;,1
detection,1
(currentProject);,1
Remaining,1
buildings,1
4f);,1
object's,1
\7,\,1
//checks,1
\Vector3(transform.position.x,\,1
i<,1
building.buildImage;,1
\queue,\,1
auto-added,1
Speed,1
//sequence,1
\Rect(0,\,1
selectionBounds.Encapsulate(r.bounds);,1
Below------------------------------------------------------------------------------------------------//,1
long....,1
\hitPoints,\,1
(building,1
isobject;,1
commands,1
(actionToPerform);,1
yRadius,1
DrawHealthBar(Rect,1
sends,1
appended,1
(t,1
Related,1
http://gamedev.stackexchange.com/questions/93823/how-to-make-line-renderer-lines-stay-flat/93895#93895,1
exit,1
Temporary,1
oldFwd;,1
selectBox.x,1
Has,1
Debug.Log(healthBarRect.offsetMax);,1
(i+1),1
gameObject.GetComponent<MeshRenderer>();,1
maxHitPoints;,1
resource;,1
long,1
\"\Entered\,1
\area,\,1
Rally,1
\held,\,1
\GUI.Label(cursorPosition,\,1
scripts,1
storing,1
May,1
Left-Button,1
unit.transform.position;,1
returnVector.x,1
if(i==0),1
>().Length;,1
queue'd,1
ensure,1
System.Text;,1
resourceDeposit.isEmpty()),1
\anyways,\,1
DrawLine(),1
startColor;,1
creat,1
CalculateTargetDestination();,1
resource.GetResourceType()),1
//dirty,1
changing,1
\ICON_WIDTH,\,1
While,1
origin.z);,1
Transparent,1
resourceValues;,1
buildings[i].GetComponent<Building>();,1
Though,1
(!this.readyPlayers.Contains(player)),1
GUI,1
parameters,1
SceneLoadLocalBegin(string,1
SetSelectionBox();,1
\buttonHover,\,1
project.actdist);,1
CursorState.Attack:,1
resourceLimits),1
Specific,1
scaled,1
Modify,1
ang;,1
unless,1
GUI.BeginGroup(playingArea);,1
DrawBuildQueue(string[],1
actions.Length;,1
result,1
pick,1
Handling//-----------------------------------------------------------------------------------------//,1
UIObjectInfoType());,1
Usage,1
//DrawMouseCursor();,1
buildImage;,1
dot,1
ray,1
(or,1
\resourceImages.Add(ResourceType.Power,\,1
Modying,1
ScaleSelectionBox();,1
insideHeight;,1
brand,1
playingArea;,1
resourceImages,1
CHANGE,1
SetBuilding(Building,1
0f;,1
passed,1
objectMeshrenderer,1
Shot,1
//destination,1
\DrawResourceIcon(ResourceType.Power,\,1
passing,1
loop,1
\name="\objectListTag"\></param>\,1
\position,\,1
Callback,1
Merge,1
Destroy(VectorLine.canvases3D[i]);,1
Collect();,1
\128,\,1
\do,\,1
//Youre,1
//project.RallyInit();,1
excluding,1
\Rect(Screen.width-ORDERS_BAR_WIDTH-BUILD_IMAGE_WIDTH,RESOURCE_BAR_HEIGHT,ORDERS_BAR_WIDTH+BUILD_IMAGE_WIDTH,Screen.height-RESOURCE_BAR_HEIGHT));\,1
Call,1
Vector3(destination.x,1
DrawSelectionBox,1
currentposition.z,1
\BUILD_IMAGE_PADDING,\,1
Obviously,1
OM,1
critical);,1
base.OnGUI();,1
CoreSys,1
selectionBounds.extents;,1
\metalProduction,\,1
\UIObjectInfoType(objectMeshrenderer.material,\,1
numBlocksToShow;,1
building.sellImage)),1
CalculateBounds(),1
ResourceManager.InvalidPosition),1
\player,\,1
Input.mousePosition.x;,1
base.whatever,1
selectionBox;,1
INSIGHT,1
\[BoltGlobalBehaviour(BoltNetworkModes.Server,\,1
versionNo.text,1
if(distcheck,1
//SetCursorState(CursorState.Select);,1
//we,1
player.hud.SetCursorState(CursorState.Harvest);,1
approprietly,1
Firing,1
Bolt,1
hit;,1
destinationTarget;,1
\moveCursors,\,1
(Collider,1
(!moving,1
thing),1
\resourceImages.Add(ResourceType.Metal,\,1
\solid,\,1
deletes,1
parts,1
(core),1
\GUI.Box(selectBox,\,1
yield,1
collectionAmount,1
\Debug.Log("\Blaster\,1
Stored,1
lastFwd),1
SetResourceValues(Dictionary<,1
Building.cs,1
t--->,1
GetComponent,1
sensative</param>,1
Unit_Old,1
stopping,1
moveSpeed);,1
direction.Normalize();,1
\lowSplit,\,1
base.DrawSelectionBox(selectBox);,1
groupHeight,1
//Recieves,1
\irrelevant,\,1
hacked,1
resourceStore.actdist);,1
dynamic,1
readyPlayers,1
reach,1
SpawnPlayerEvent.Create(connection);,1
Run,1
\angle,\,1
limitations,1
DrawOrdersBar(),1
floating,1
selectBox,1
IplayerObject,1
angle..,1
View,1
!MouseInBounds(),1
DrawActions(player.SelectedObject.GetActions());,1
primary,1
)&&,1
DestroyCircle(),1
unit.buildImage;,1
MAIN,1
switch(resourceHealthBars[i].name),1
previously,1
//Temp,1
Up-Button,1
\//line.SetPosition(1,\,1
============================================================,1
z);,1
\rectangle,\,1
resourceLimits[type].ToString();,1
could,1
shows,1
Updating,1
IPlayerObject:,1
GameStartEvent.Create(Bolt.GlobalTargets.Everyone);,1
lastSelection.GetComponent<,1
unit.destination),1
Methods=======,1
\array,\,1
MaxNumRows(int,1
x;,1
cannot,1
renderer,1
Hacked,1
buildings.cs,1
name)).GameObjectReferance;,1
\"\False"\;\,1
(distcheck,1
<<,1
resposabilities,1
}*/,1
colors,1
Bool,1
esc,1
RagneDetection,1
line;,1
layer,1
\Parent.SetTransparentMaterial(transparent,\,1
SpawnPlayer(BoltConnection,1
though,1
collect;,1
if(!resourceDeposit.isEmpty()),1
\(Vector3.Cross(curFwd,\,1
ordersSkin;,1
bugs,1
holds,1
from:,1
//idk,1
equalize,1
eventargs,1
(selected),1
player.HasTreasure,1
\selectBox,\,1
Deposit();,1
0.2f);,1
System//---------------------------------------------------------------------------------------------------------------//,1
(activeCursorState,1
Deinriments,1
SetColliders(bool,1
this.SpawnPlayer(connection);,1
spriteRendererGO,1
//GameObject,1
mousePos,1
CursorState.PanRight:,1
hasnt,1
snug,1
Storage,1
test,1
//Needs,1
\click,\,1
ResourceManager.GetBuildImage(actions[i]);,1
CursorState.PanLeft:,1
\(object.ReferenceEquals(moveableObject,\,1
Holds,1
keyboard,1
(These,1
validation,1
Idfk,1
resourceDeposit;,1
moveableObject),1
normalize,1
\harvestCursors,\,1
Searches,1
shiftAmount,1
world,1
13,1
fixed,1
Mathf.Rad2Deg;,1
\(Physics.Raycast(ray,\,1
32;,1
Meant,1
this.SpawnPlayer(this.queuedSpawns.Dequeue());,1
border,1
\useful,\,1
\class,\,1
And,1
expensive,1
Conditions,1
hitObject){,1
structured,1
objectMovement.Value.GameObject.GetComponent<Rigidbody2D>().AddForce(objectMovement.Value.MoveableObject.transformV.position,1
respective,1
Leave,1
//Baby,1
resources(coming,1
GhostBlocks,1
//define,1
objectMovement.Value.GameObject.GetComponent<Rigidbody2D>(),1
Loops======,1
Start(){,1
unit/buildings,1
lost,1
areaHeight,1
\this,\,1
Running,1
LowerLeftPoint;,1
-20;,1
203;,1
factors,1
frame:,1
\name="\name"\>Objects\,1
foreach(Ore,1
sprite,1
calculated,1
several,1
determines,1
smallButtonHover;,1
enabled),1
StopHarvest();,1
Functions//---------------------------------------//,1
selectedBuilding.getBuildPercentage());,1
execution,1
LoadingScreenUI.Instance.GetComponentsInChildren<Transform>()),1
MakeMove();,1
//fgt,1
ResourceManager.HealthyTexture;,1
hub,1
DrawSelection,1
\Rect(0,0,Screen.width,Screen.height));\,1
this.resourceValues,1
DrawLine();,1
if(rotating),1
Location,1
count,1
done,1
addition,1
wide,1
till,1
(Mathf.Cos(Mathf.Deg2Rad,1
System.Linq;,1
rewritten,1
RangeDetection,1
(unit.destinationIndex,1
action,1
version,1
{};,1
\powerCost,\,1
resourceHealthBars[i]);,1
SceneLoadLocalDone(string,1
delete,1
flip.y;,1
Deselects,1
179;,1
dirToTarget,1
GetBuildImage(string,1
ended,1
completion,1
switch(newState),1
//it,1
Handling//,1
direction;,1
leftCursor;,1
top-left,1
(Mathf.Sin(Mathf.Deg2Rad,1
resource.actdist);,1
spriterenderer,1
Methods//------------------------------//,1
//Null,1
\origin.x,\,1
Supportive,1
soon,1
CallSelectionBox(bool,1
currentlyAttackingObject.DetectedGameObject.transform.position;,1
Wanted,1
unit.destinationsList.Count,1
(Arms,1
selection(play,1
this.playingArea,1
//caused,1
resourceDeposit.actdist);,1
resourceBar,1
highest,1
position;,1
lineCircle;,1
PerformAction(string,1
verify,1
if(building.UnderConstruction()),1
IsOwnedBy(Player,1
wepaons,1
client,1
product,1
subscribe,1
DeIncriments,1
axis,1
MakeMove(),1
Materials//,1
Transforms,1
DetermineRenderRect();,1
connect,1
destruction,1
(float)hitPoints,1
//obvious,1
accessible,1
if(hitObject.name,1
remaining,1
\name="\activeStatus"\>Whether\,1
@note:,1
player.SelectedObject,1
\amount,\,1
\"\True"\;\,1
\kept,\,1
//specific,1
//New,1
selectBox.height,1
//LowerLeft,1
CreateBuilding(actionToPerform);,1
critical;,1
1.0f,1
numBlocks);,1
\name="\instanceID"\></param>\,1
arm.GetComponent<Renderer>().enabled,1
100);,1
base.PerformAction,1
mouseOverHud,1
==========,1
========================================================,1
Build(Building,1
GetButtonPos(int,1
\speed,\,1
Definitions,1
thisshitfuckedup,1
object-specific,1
deincrement,1
\attackCursors,\,1
feature,1
\Rect(leftPos,topPos,ORDERS_BAR_WIDTH,SELECTION_NAME_HEIGHT),\,1
relevcant,1
GetPlayingArea(),1
\WorldObject,\,1
healthStyle,1
\"\/"\\,1
\runtime,\,1
SetCursorState(CursorState.PanRight);,1
contents,1
sys//,1
CursorState.PanRight),1
\this,);\,1
resourceValues[type].ToString(),1
System//-------------------------------------------------------------------------------------------------------------------------------//,1
collider.enabled,1
**WorldEdit,1
moves,1
(0-1),1
List<PlayerData>();,1
Collection,1
loaded,1
Parent;,1
\titaniumCost,\,1
selectionBox,1
Search/Query,1
destiantion);,1
(float)maxHitPoints;,1
UnityEditor;,1
int.Parse(ore.name)],1
Added,1
\"\Active"\\,1
carry,1
stored,1
these,1
isnt,1
maxBounds,1
cant,1
destination.y;,1
instance,1
Handling//---------------------------------------------------------------------------------------------------------------//,1
dependants,1
on:,1
UpdateCursorAnimation(),1
various,1
destinationTarget),1
file,1
xRadius),1
cache,1
//Modify,1
DrawAllLines();,1
command,1
\name="\partialName"\></param>\,1
sleected,1
MGMT//--------------------------------------//,1
enabled/disables,1
surface,1
======================================================*/,1
mouseclick,1
merge,1
Ghosted,1
blocks),1
player.SelectedObject;,1
project){,1
Throwers,1
owner),1
useful,1
shortly,1
soemthing,1
Upgrading//------------------------------------------------------------------------------------------------------------------------//,1
\150,\,1
objectHUD.RemoveObjectinfoPanel();,1
RESOURCE_BAR_HEIGHT;,1
Such,1
puts,1
Section//----------------------------------//,1
healthStyle.padding.top,1
Null,1
\line.SetPosition(i,\,1
(unit,1
very,1
\curFwd,\,1
(){,1
CursorState.Select,1
\Interface,\,1
(!this.AllPlayersReady()),1
Zoom-Scrolling,1
Forwards/Up,1
fit,1
sortedBlocks[blocks.Length,1
//if(moveHover),1
Organizes,1
ResourceType.Metal;,1
players.Length;,1
resourceStore;,1
Verifies,1
\update,\,1
CheckIMoveableObject(IMoveableObject,1
UserInput.CS,1
lsit,1
ICON_WIDTH,1
0.65f);,1
ORDERS_BAR_WIDTH;,1
Its,1
unit.destination;,1
//CallSelectionBox(selected);,1
CursorState.Move:,1
Start(),1
if(moving),1
triangular,1
curFwd,1
label),1
stays,1
buildPercentage),1
buildSpeed;,1
bad,1
rest,1
sorts,1
Hovering,1
References,1
//Method,1
providing,1
GetPreviousCursorState(),1
buildQueue.Length;,1
this.resourceLimits,1
Work,1
Modules,1
\Projectile"\);\,1
insideHeight,1
activeCursor.width;,1
profiler,1
switch(resources[i].name),1
leaves,1
existing,1
RightClickGround(RClickEventArgs,1
RallyPoint,1
Functions//=====================================================================//,1
LowerLeftPoint,1
\Rect(0,0,Screen.width,RESOURCE_BAR_HEIGHT));\,1
grab,1
BUTTON_SPACING,1
nodes,1
\transform.position.y,\,1
rpevious,1
many,1
\it,\,1
ResourceManager.GetBuildImage(buildQueue[i]));,1
alpha,1
second,1
orthographic,1
unit.destinationsList[unit.destinationIndex];,1
\BoltNetwork.Instantiate(BoltPrefabs.Player,\,1
null)),1
parallel,1
worked,1
activeCursor.height);,1
resource.GetResourceType();,1
Properties,1
thousand,1
\activeCursor.width,\,1
actdist;,1
functionality,1
teh,1
\(resource.transform.position,\,1
moveable,1
GameState.Current.ActivePlayers;,1
\out,\,1
changed,1
\"\Left\,1
Collect(),1
Enums.cs,1
resource.isEmpty()),1
//Possibly,1
postion,1
if(false){,1
(playerObject),1
\time,\,1
StopDrawingLine(),1
resource),1
some,1
(string,1
Queue<BoltConnection>,1
Quaternion.identity);,1
SetLineColors();,1
\top,\,1
That,1
Ore[blocks.Length];,1
Prefab,1
Variables//,1
rotates,1
\CalculateCurrentHealth(0.35f,\,1
target;,1
\GUI.VerticalSlider(GetScrollPos(groupHeight),\,1
//Resets,1
\groupHeight,\,1
\buildings,\,1
RGB,1
fits,1
SetSelectionBox(),1
more:,1
//Cursors,1
deactivated,1
\SetSelection(true,\,1
determined,1
temp,1
List<PlayerData>,1
actions),1
\Vector3.Angle(curFwd,\,1
distributes,1
building.Sell();,1
movementLists,1
objects:,1
lowest,1
2);,1
!rotating,1
amountLeft,1
\if(!selectionName.Equals("\"\))\,1
groupHeight),1
maxHealth,1
retrieved,1
DrawResourcesBar();,1
\UpperRightPoint,\,1
ResourceManager.cs,1
flip.x;,1
properly,1
pos,1
uneeded,1
r,1
Need,1
curFwd;,1
creating,1
facilitate,1
Actions,1
\target,\,1
//how,1
endpoints,1
\GetButtonPos(row,\,1
referenced,1
\name="\listType"\>List\,1
smallButtonClick;,1
units[i].GetComponent<Unit>();,1
Multipliers,1
MeshRenderer,1
few,1
\true;,\,1
targeting,1
managers,1
DrawOrdersBar();,1
Mathf.FloorToInt,1
lastFwd);,1
straight,1
^...7,1
\selected,\,1
statuses,1
lowSplit),1
BlockPlacement,1
playerObject.ObjectName);,1
required,1
lastSelection;,1
Long,1
(amount);,1
OnEvent(GameStartEvent,1
selected);,1
Right-Button,1
xRadius,1
Click/Keyboard,1
Components,1
Does,1
Camera.main.ScreenPointToRay(userInput.MousePos);,1
RaycastHit,1
minBounds;,1
resourceImages;,1
ObjectManager,1
currently),1
Publishes,1
Setup,1
Collider[],1
OnMouseEnter(),1
flip.y,1
namespace,1
ReOrders,1
if(mouseOverHud),1
\bad,\,1
thickness,1
circleMadeBool;,1
opbjects,1
if(harvesting,1
ORDERS_BAR_WIDTH,1
cursor),1
UserInterface,1
Was,1
Menu,1
Decompose,1
action)),1
////????,1
LevelManager.Instance.GetSpawnPosition(i);,1
\resourceSkin,\,1
(resource,1
hitObject,1
Strings:,1
\(resourceDeposit.transform.position,\,1
unitShift,1
if(GUI.Button(new,1
toggled,1
updating,1
FontStyle.Bold;,1
CursorState.Move),1
save,1
